[gd_scene load_steps=5 format=2]

[ext_resource path="res://gravi-base/itens/seta_guia/seta_guia.dae" type="PackedScene" id=1]
[ext_resource path="res://gravi-base/itens/seta_guia/seta_guia.gd" type="Script" id=2]

[sub_resource type="Shader" id=1]
code = "shader_type spatial;
render_mode blend_mix,depth_draw_opaque,cull_back,diffuse_burley,specular_schlick_ggx,depth_test_disable;
uniform vec4 albedo : hint_color;
uniform sampler2D texture_albedo : hint_albedo;
uniform float specular;
uniform float metallic;
uniform float roughness : hint_range(0,1);
uniform float point_size : hint_range(0,128);
uniform sampler2D texture_metallic : hint_white;
uniform vec4 metallic_texture_channel;
uniform sampler2D texture_roughness : hint_white;
uniform vec4 roughness_texture_channel;
uniform sampler2D texture_emission : hint_black_albedo;
uniform vec4 emission : hint_color;
uniform float emission_energy;
uniform vec3 uv1_scale;
uniform vec3 uv1_offset;
uniform vec3 uv2_scale;
uniform vec3 uv2_offset;

uniform float lambda = 2.0;
uniform float velocidade = 2.0;
varying vec3 vertice;


void vertex() {
	UV=UV*uv1_scale.xy+uv1_offset.xy;
	vertice = VERTEX;
}




void fragment() {
	vec2 base_uv = UV;
	vec4 albedo_tex = texture(texture_albedo,base_uv);
	ALBEDO = albedo.rgb * albedo_tex.rgb;
	float metallic_tex = dot(texture(texture_metallic,base_uv),metallic_texture_channel);
	METALLIC = metallic_tex * metallic;
	float roughness_tex = dot(texture(texture_roughness,base_uv),roughness_texture_channel);
	ROUGHNESS = roughness_tex * roughness;
	SPECULAR = specular;
	vec3 emission_tex = texture(texture_emission,base_uv).rgb;
	float k = lambda == 0.0 ? 0.0 : (2.0*3.1415/lambda);
	EMISSION = (emission.rgb+emission_tex) * (emission_energy + 0.5 + 0.5*sin(3.1415+k*(vertice.z + velocidade*TIME)));
	ALPHA = albedo.a * emission.a;
}
"

[sub_resource type="ShaderMaterial" id=2]
render_priority = 127
shader = SubResource( 1 )
shader_param/albedo = Color( 0.827451, 0.866667, 0.0941176, 1 )
shader_param/specular = 0.5
shader_param/metallic = 0.5
shader_param/roughness = 0.542695
shader_param/point_size = 1.0
shader_param/metallic_texture_channel = Plane( 1, 0, 0, 0 )
shader_param/roughness_texture_channel = Plane( 1, 0, 0, 0 )
shader_param/emission = Color( 0.729412, 0.701961, 0.0392157, 1 )
shader_param/emission_energy = 1.0
shader_param/uv1_scale = Vector3( 1, 1, 1 )
shader_param/uv1_offset = Vector3( 0, 0, 0 )
shader_param/uv2_scale = Vector3( 1, 1, 1 )
shader_param/uv2_offset = Vector3( 0, 0, 0 )
shader_param/lambda = 2.0
shader_param/velocidade = 2.0

[node name="SetaGuia" instance=ExtResource( 1 )]
script = ExtResource( 2 )

[node name="seta" parent="." index="0"]
transform = Transform( 0.05, 0, 0, 0, 0.05, 0, 0, 0, 0.05, 0, 0, 0 )
material/0 = SubResource( 2 )

[node name="TweenSumir" type="Tween" parent="." index="1"]
