<?xml version="1.0" encoding="utf-8"?>
<COLLADA xmlns="http://www.collada.org/2005/11/COLLADASchema" version="1.4.1">
<asset>
	<contributor>
		<author>Anonymous</author>
		<authoring_tool>Collada Exporter for Blender 2.6+, by Juan Linietsky (juan@codenix.com)</authoring_tool>
	</contributor>
	<created>2018-07-12T18:03:42Z</created>
	<modified>2018-07-12T18:03:42Z</modified>
	<unit meter="1.0" name="meter"/>
	<up_axis>Z_UP</up_axis>
</asset>
<library_effects>
	<effect id="id-fx-2" name="Material-fx">
		<profile_COMMON>
			<technique sid="common">
				<blinn>
					<emission>
						<color>  0.0 0.0 0.0 1.0 </color>
					</emission>
					<ambient>
						<color>  0.0 0.0 0.0 1.0 </color>
					</ambient>
					<diffuse>
						<color>  0.6400000190734865 0.6400000190734865 0.6400000190734865 1.0 </color>
					</diffuse>
					<specular>
						<color>  0.5 0.5 0.5 1.0 </color>
					</specular>
					<shininess>
						<float>50</float>
					</shininess>
					<reflective>
						<color>  1.0 1.0 1.0 1.0 </color>
					</reflective>
					<index_of_refraction>
						<float>4.0</float>
					</index_of_refraction>
				</blinn>
				<extra>
					<technique profile="FCOLLADA">
					</technique>
					<technique profile="GOOGLEEARTH">
						<double_sided>0</double_sided>
					</technique>
				</extra>
			</technique>
		</profile_COMMON>
	</effect>
</library_effects>
<library_materials>
	<material id="id-material-3" name="Material">
		<instance_effect url="#id-fx-2"/>
	</material>
</library_materials>
<library_geometries>
	<geometry id="id-mesh-4" name="Cube">
		<mesh>
			<source id="id-mesh-4-positions">
				<float_array id="id-mesh-4-positions-array" count="144"> 0.75 0.9999999403953552 -0.13153338432312012 0.75 -1.9199905395507812 -0.13153338432312012 -0.7500001192092896 -1.9199904203414917 -0.13153338432312012 -0.7499996423721313 1.0000003576278687 -0.13153338432312012 0.7500004768371582 0.999999463558197 0.13153338432312012 -0.7499999403953552 1.0 0.13153338432312012 -0.7500003576278687 -1.9199903011322021 0.13153338432312012 0.7499993443489075 -1.9199912548065186 0.13153338432312012 0.75 0.9999999403953552 -0.13153338432312012 0.7500004768371582 0.999999463558197 0.13153338432312012 0.7499993443489075 -1.9199912548065186 0.13153338432312012 0.75 -1.9199905395507812 -0.13153338432312012 0.75 -1.9199905395507812 -0.13153338432312012 0.7499993443489075 -1.9199912548065186 0.13153338432312012 -0.7500003576278687 -1.9199903011322021 0.13153338432312012 -0.7500001192092896 -1.9199904203414917 -0.13153338432312012 -0.7500001192092896 -1.9199904203414917 -0.13153338432312012 -0.7500003576278687 -1.9199903011322021 0.13153338432312012 -0.7499999403953552 1.0 0.13153338432312012 -0.7499996423721313 1.0000003576278687 -0.13153338432312012 -0.7499999403953552 1.0 0.13153338432312012 0.7500004768371582 0.999999463558197 0.13153338432312012 1.6537563800811768 0.9999991655349731 0.21752409636974335 -1.653755784034729 1.0 0.21752409636974335 -1.6537553071975708 1.0000005960464478 -0.21752409636974335 -1.653755784034729 1.0 0.21752409636974335 4.76837158203125e-07 1.8689155578613281 1.364160084449395e-06 -0.7499996423721313 1.0000003576278687 -0.13153338432312012 -0.7499999403953552 1.0 0.13153338432312012 -1.653755784034729 1.0 0.21752409636974335 -1.6537553071975708 1.0000005960464478 -0.21752409636974335 0.75 0.9999999403953552 -0.13153338432312012 -0.7499996423721313 1.0000003576278687 -0.13153338432312012 -1.6537553071975708 1.0000005960464478 -0.21752409636974335 1.6537556648254395 0.9999999403953552 -0.21752409636974335 0.7500004768371582 0.999999463558197 0.13153338432312012 0.75 0.9999999403953552 -0.13153338432312012 1.6537556648254395 0.9999999403953552 -0.21752409636974335 1.6537563800811768 0.9999991655349731 0.21752409636974335 1.6537556648254395 0.9999999403953552 -0.21752409636974335 -1.6537553071975708 1.0000005960464478 -0.21752409636974335 4.76837158203125e-07 1.8689155578613281 1.364160084449395e-06 -1.653755784034729 1.0 0.21752409636974335 1.6537563800811768 0.9999991655349731 0.21752409636974335 4.76837158203125e-07 1.8689155578613281 1.364160084449395e-06 1.6537563800811768 0.9999991655349731 0.21752409636974335 1.6537556648254395 0.9999999403953552 -0.21752409636974335 4.76837158203125e-07 1.8689155578613281 1.364160084449395e-06</float_array>
				<technique_common>
				<accessor source="#id-mesh-4-positions-array" count="48" stride="3">
					<param name="X" type="float"/>
					<param name="Y" type="float"/>
					<param name="Z" type="float"/>
				</accessor>
				</technique_common>
			</source>
			<source id="id-mesh-4-normals">
				<float_array id="id-mesh-4-normals-array" count="144"> 0.0 0.0 -1.0 0.0 0.0 -1.0 0.0 0.0 -1.0 0.0 0.0 -1.0 1.4225434163961381e-09 0.0 1.0 1.4225434163961381e-09 0.0 1.0 1.4225434163961381e-09 0.0 1.0 1.4225434163961381e-09 0.0 1.0 1.0 -1.9398703443584964e-07 3.3986373182415264e-07 1.0 -1.9398703443584964e-07 3.3986373182415264e-07 1.0 -1.9398703443584964e-07 3.3986373182415264e-07 1.0 -1.9398703443584964e-07 3.3986373182415264e-07 -3.576278970740532e-07 -1.0 -1.2567481917358236e-06 -3.576278970740532e-07 -1.0 -1.2567481917358236e-06 -3.576278970740532e-07 -1.0 -1.2567481917358236e-06 -3.576278970740532e-07 -1.0 -1.2567481917358236e-06 -1.0 1.5518962470650877e-07 -1.0195924460276728e-06 -1.0 1.5518962470650877e-07 -1.0195924460276728e-06 -1.0 1.5518962470650877e-07 -1.0195924460276728e-06 -1.0 1.5518962470650877e-07 -1.0195924460276728e-06 -2.851593023933674e-07 -1.0 -1.1534482382558053e-06 -2.851593023933674e-07 -1.0 -1.1534482382558053e-06 -2.851593023933674e-07 -1.0 -1.1534482382558053e-06 -2.851593023933674e-07 -1.0 -1.1534482382558053e-06 -0.46512481570243835 0.8852450251579285 0.0 -0.46512481570243835 0.8852450251579285 0.0 -0.46512481570243835 0.8852450251579285 0.0 -1.319043150260768e-07 -0.9999999403953552 -1.3226051578385523e-06 -1.319043150260768e-07 -0.9999999403953552 -1.3226051578385523e-06 -1.319043150260768e-07 -0.9999999403953552 -1.3226051578385523e-06 -1.319043150260768e-07 -0.9999999403953552 -1.3226051578385523e-06 -2.231682287856529e-07 -1.0 0.0 -2.231682287856529e-07 -1.0 0.0 -2.231682287856529e-07 -1.0 0.0 -2.231682287856529e-07 -1.0 0.0 -1.6488039022988232e-07 -1.0 -1.889434201984841e-06 -1.6488039022988232e-07 -1.0 -1.889434201984841e-06 -1.6488039022988232e-07 -1.0 -1.889434201984841e-06 -1.6488039022988232e-07 -1.0 -1.889434201984841e-06 5.029698257885684e-08 0.24284727871418 -0.9700645208358765 5.029698257885684e-08 0.24284727871418 -0.9700645208358765 5.029698257885684e-08 0.24284727871418 -0.9700645208358765 6.035637056811538e-08 0.24284425377845764 0.9700652956962585 6.035637056811538e-08 0.24284425377845764 0.9700652956962585 6.035637056811538e-08 0.24284425377845764 0.9700652956962585 0.4651252329349518 0.8852448463439941 1.1734235840776819e-06 0.4651252329349518 0.8852448463439941 1.1734235840776819e-06 0.4651252329349518 0.8852448463439941 1.1734235840776819e-06</float_array>
				<technique_common>
				<accessor source="#id-mesh-4-normals-array" count="48" stride="3">
					<param name="X" type="float"/>
					<param name="Y" type="float"/>
					<param name="Z" type="float"/>
				</accessor>
				</technique_common>
			</source>
			<vertices id="id-mesh-4-vertices">
				<input semantic="POSITION" source="#id-mesh-4-positions"/>
			</vertices>
			<polygons count="13" material="id-trimat-5">
				<input semantic="VERTEX" source="#id-mesh-4-vertices" offset="0"/>
				<input semantic="NORMAL" source="#id-mesh-4-normals" offset="0"/>
				<p> 0 1 2 3 </p>
				<p> 4 5 6 7 </p>
				<p> 8 9 10 11 </p>
				<p> 12 13 14 15 </p>
				<p> 16 17 18 19 </p>
				<p> 20 21 22 23 </p>
				<p> 24 25 26 </p>
				<p> 27 28 29 30 </p>
				<p> 31 32 33 34 </p>
				<p> 35 36 37 38 </p>
				<p> 39 40 41 </p>
				<p> 42 43 44 </p>
				<p> 45 46 47 </p>
			</polygons>
		</mesh>
	</geometry>
</library_geometries>
<library_visual_scenes>
	<visual_scene id="id-scene-1" name="scene">
		<node id="seta" name="seta" type="NODE">
			<matrix sid="transform"> 1.0 0.0 0.0 0.0 0.0 1.0 0.0 0.0 0.0 0.0 1.0 0.0 0.0 0.0 0.0 1.0  </matrix>
			<instance_geometry url="#id-mesh-4">
				<bind_material>
					<technique_common>
						<instance_material symbol="id-trimat-5" target="#id-material-3"/>
					</technique_common>
				</bind_material>
			</instance_geometry>
		</node>
	</visual_scene>
</library_visual_scenes>
<scene>
	<instance_visual_scene url="#id-scene-1" />
</scene>
</COLLADA>
