[gd_resource type="DynamicFont" load_steps=2 format=2]

[ext_resource path="res://gravi-base/fontes/FiraSans-Regular.otf" type="DynamicFontData" id=1]

[resource]
size = 50
use_filter = true
font_data = ExtResource( 1 )
